<svg xmlns="http://www.w3.org/2000/svg" width="360" height="257" viewBox="0 0 360 257">
  <g fill="none" fill-rule="evenodd" transform="translate(-14 -54)">
    <g transform="translate(14 54)">
      <circle cx="45" cy="16" r="16" fill="#FC6D26" transform="translate(15 107)"/>
      <path fill="#FCA326" d="M44,54 L44,117.5 L44,150 L12.0065469,150 C12.0058904,150 12.0052339,150 12.0045775,150 C12.0039214,150 12.0032649,150 12.0026083,150 L9.5,150 C7.01977567,150 5,152.014348 5,154.499172 L5,174.002995 C5,175.105021 5.89426273,176 6.9973917,176 L9.5,176 C11.9802243,176 14,173.985652 14,171.500828 L14,164 L17,164 L17,172.999305 C17,173.551974 17.4530363,174 17.9970301,174 L21,174 C23.209139,174 25,172.215707 25,170.009947 L25,164 L45.4546853,164 C50.2880371,181.863349 66.609129,195 85.9992259,195 L165.009309,195 C181.566586,195 195,181.568637 195,165.000211 L195,156.743017 L350.725264,116.724234 C363.024842,113.563448 362.702356,111 349.999569,111 L194.5,111 L88,111 L88,51 L88,30.5 C88,22.9710994 84.4616559,16.2706954 78.9577984,11.9702384 C78.9857367,11.6505492 79,11.3269403 79,11 C79,4.92486775 74.0751322,0 68,0 C63.3360351,0 59.3500188,2.90264314 57.7498806,7 L23.4956702,7 C10.5274478,7 0,17.5213084 0,30.5 L0,44.0037527 C0,49.5147327 4.48120099,54 10.0090425,54 L44,54 L44,54 Z M68,18 C71.8659932,18 75,14.8659932 75,11 C75,7.13400675 71.8659932,4 68,4 C64.1340068,4 61,7.13400675 61,11 C61,14.8659932 64.1340068,18 68,18 L68,18 Z"/>
      <path fill="#FCA326" d="M219.364507,254.363987 C220.992256,252.735151 222,250.484858 222,247.99924 L222,208.746188 L222,206.999082 C222,200.929186 217.071819,196 210.992599,196 L195,196 L195,160.006774 C195,148.963466 186.04178,140 174.991255,140 L167.008745,140 C155.958067,140 147,148.957338 147,160.006774 L147,201.996585 C147,211.944513 155.063348,220 165.009993,220 L180.503701,220 L197,220 L197,239 L183.000263,239 C178.030467,239 174,243.029437 174,248 C174,252.971656 178.029555,257 183.000263,257 L212.999737,257 C215.486303,257 217.737722,255.991288 219.366822,254.36068 L219.364507,254.363987 Z"/>
      <path fill="#FC6D26" d="M88 60.6136364L73 55.5 88 50.3863636 88 60.6136364zM88 81.6136364L73 76.5 88 71.3863636 88 81.6136364zM88 102.613636L73 97.5 88 92.3863636 88 102.613636z"/>
    </g>
    <g transform="translate(13 68)">
      <circle cx="14.5" cy="2.5" r="2.5" fill="#FC6D26"/>
      <path fill="#FFFFFF" d="M4.5,27 L8,21 L1,21 L4.5,27 L4.5,27 Z M11.5,27 L15,21 L8,21 L11.5,27 L11.5,27 Z M18.5,27 L22,21 L15,21 L18.5,27 L18.5,27 Z M25.5,27 L29,21 L22,21 L25.5,27 L25.5,27 Z M32.5,27 L36,21 L29,21 L32.5,27 L32.5,27 Z"/>
      <rect width="37" height="2" y="19" fill="#FC6D26" rx="1"/>
    </g>
    <path fill="#E24329" d="M82,70 C84.7614237,70 87,67.7614237 87,65 C87,62.2385763 84.7614237,60 82,60 C79.2385763,60 77,62.2385763 77,65 C77,67.7614237 79.2385763,70 82,70 Z"/>
    <polygon fill="#FC6D26" points="211 287.962 225 285 211 282.038"/>
    <polygon fill="#FC6D26" points="161 241.5 187 236 161 230.5"/>
    <polygon fill="#FC6D26" points="161 256.5 187 251 161 245.5"/>
    <path fill="#FC6D26" d="M284.403846,165 L280.5,179 L276.596154,165 L284.403846,165 Z M261.403846,165 L257.5,179 L253.596154,165 L261.403846,165 Z M238.403846,165 L234.5,179 L230.596154,165 L238.403846,165 Z M307.403846,165 L303.5,179 L299.596154,165 L307.403846,165 Z"/>
    <polygon fill="#FC6D26" points="129.827 165 122 202 114.173 165"/>
    <polygon fill="#FC6D26" points="161.827 165 154 202 146.173 165 161.827 165"/>
    <polygon fill="#FC6D26" points="193.827 165 186 202 178.173 165"/>
  </g>
</svg>
